<?xml version="1.0" encoding="utf-8"?>
<!-- Generator: Adobe Illustrator 23.0.0, SVG Export Plug-In . SVG Version: 6.00 Build 0)  -->
<svg version="1.0" xmlns="http://www.w3.org/2000/svg" xmlns:xlink="http://www.w3.org/1999/xlink" x="0px" y="0px" width="24px"
	 height="24px" viewBox="0 0 24 24" enable-background="new 0 0 24 24" xml:space="preserve">
<g id="White">
</g>
<g id="Black">
</g>
<g id="Color">
	<g>
		<path fill="#17A2B8" d="M10.6,0.6c-0.2,0.1-0.4,0.3-0.4,0.6v4.2c0,3.3-3.8,4.4-4,4.5c0,0-0.1,0-0.1,0.1c-0.3-0.6-0.9-1-1.5-1H1.7
			c-1,0-1.7,0.8-1.7,1.7l0,10.2c0,1,0.8,1.7,1.7,1.7h1.6c0.3,0,0.6-0.3,0.6-0.6s-0.3-0.6-0.6-0.6H1.7c-0.3,0-0.5-0.2-0.5-0.5V10.6
			c0-0.3,0.2-0.5,0.5-0.5h2.8c0.3,0,0.5,0.2,0.5,0.5v9.6c0,1.8,1.5,3.3,3.3,3.3h10.2c2.3,0,3.7-1.2,4-3.3l1.4-8.6c0,0,0-0.1,0-0.1
			v-0.1c0-1.8-1.5-3.3-3.3-3.3h-5.2V4.4c0-1.6-0.5-2.7-1.4-3.4C12.7,0,10.7,0.6,10.6,0.6z M11.4,5.4V1.7c0.5-0.1,1.4-0.1,2,0.3
			c0.6,0.4,0.9,1.2,0.9,2.4v4.3c0,0.3,0.3,0.6,0.6,0.6h5.8c1.2,0,2.1,1,2.1,2.1v0.1l-1.4,8.6c-0.2,1.5-1.1,2.2-2.8,2.2h-7H8.4
			c-1.2,0-2.1-1-2.1-2.1V11c0.1,0,0.2,0,0.3,0C6.7,10.9,11.4,9.6,11.4,5.4z"/>
	</g>
</g>
</svg>
