<?xml version="1.0" encoding="utf-8"?>
<!-- Generator: Adobe Illustrator 23.0.0, SVG Export Plug-In . SVG Version: 6.00 Build 0)  -->
<svg version="1.0" xmlns="http://www.w3.org/2000/svg" xmlns:xlink="http://www.w3.org/1999/xlink" x="0px" y="0px" width="24px"
	 height="24px" viewBox="0 0 24 24" enable-background="new 0 0 24 24" xml:space="preserve">
<g id="White">
</g>
<g id="Black">
</g>
<g id="Color">
	<path fill="#17A2B8" d="M23.3,11.3H12.7V0.7C12.7,0.3,12.4,0,12,0s-0.7,0.3-0.7,0.7v10.6H0.7C0.3,11.3,0,11.6,0,12s0.3,0.7,0.7,0.7
		h10.6v10.6c0,0.4,0.3,0.7,0.7,0.7s0.7-0.3,0.7-0.7V12.7h10.6c0.4,0,0.7-0.3,0.7-0.7S23.7,11.3,23.3,11.3z"/>
</g>
</svg>
