<?xml version="1.0" encoding="utf-8"?>
<!-- Generator: Adobe Illustrator 23.0.0, SVG Export Plug-In . SVG Version: 6.00 Build 0)  -->
<svg version="1.0" xmlns="http://www.w3.org/2000/svg" xmlns:xlink="http://www.w3.org/1999/xlink" x="0px" y="0px" width="24px"
	 height="24px" viewBox="0 0 24 24" enable-background="new 0 0 24 24" xml:space="preserve">
<g id="White">
	<g>
		<g>
			<path fill="#FFFFFF" d="M22.8,9.5l-1.7-0.3c-0.2-0.6-0.4-1.1-0.7-1.6l1-1.4c0.4-0.6,0.4-1.4-0.2-1.9l-1.5-1.5
				c-0.3-0.3-0.7-0.4-1-0.4c-0.3,0-0.6,0.1-0.9,0.3l-1.4,1c-0.5-0.3-1.1-0.5-1.7-0.7l-0.3-1.7C14.4,0.5,13.7,0,13,0h-2.1
				c-0.7,0-1.3,0.5-1.5,1.2L9.1,2.9C8.6,3.1,8,3.3,7.5,3.6l-1.4-1C5.9,2.5,5.6,2.4,5.3,2.4c-0.4,0-0.8,0.2-1,0.4L2.7,4.3
				C2.2,4.8,2.1,5.6,2.6,6.2l1,1.4C3.3,8.1,3.1,8.7,2.9,9.3L1.2,9.5C0.5,9.7,0,10.3,0,11v2.1c0,0.7,0.5,1.3,1.2,1.5l1.7,0.3
				c0.2,0.6,0.4,1.1,0.7,1.6l-1,1.4c-0.4,0.6-0.4,1.4,0.2,1.9l1.5,1.5c0.3,0.3,0.7,0.4,1,0.4c0.3,0,0.6-0.1,0.9-0.3l1.4-1
				c0.5,0.3,1,0.5,1.6,0.7l0.3,1.7c0.1,0.7,0.7,1.2,1.5,1.2h2.1c0.7,0,1.3-0.5,1.5-1.2l0.3-1.7c0.6-0.2,1.1-0.4,1.6-0.7l1.4,1
				c0.3,0.2,0.6,0.3,0.9,0.3l0,0c0.4,0,0.8-0.2,1-0.4l1.5-1.5c0.5-0.5,0.6-1.3,0.2-1.9l-1-1.4c0.3-0.5,0.5-1.1,0.7-1.6l1.7-0.3
				c0.7-0.1,1.2-0.7,1.2-1.5v-2.1C24,10.2,23.5,9.6,22.8,9.5z M22.7,13.1c0,0.1,0,0.1-0.1,0.1l-2.1,0.4c-0.3,0-0.5,0.2-0.5,0.5
				c-0.2,0.7-0.5,1.4-0.9,2.1c-0.1,0.2-0.1,0.5,0,0.7l1.2,1.7c0,0.1,0,0.1,0,0.2l-1.5,1.5c0,0-0.1,0-0.1,0c0,0-0.1,0-0.1,0l-1.7-1.2
				c-0.2-0.2-0.5-0.2-0.7,0c-0.7,0.4-1.4,0.7-2.1,0.9c-0.3,0.1-0.5,0.3-0.5,0.5l-0.4,2.1c0,0.1-0.1,0.1-0.1,0.1h-2.1
				c-0.1,0-0.1,0-0.1-0.1l-0.4-2.1c0-0.3-0.2-0.5-0.5-0.5c-0.7-0.2-1.4-0.5-2.1-0.8C7.8,19,7.7,19,7.6,19c-0.1,0-0.3,0-0.4,0.1
				l-1.8,1.2c0,0-0.1,0-0.1,0c0,0-0.1,0-0.1,0l-1.5-1.5c0,0-0.1-0.1,0-0.2L5,16.9c0.2-0.2,0.2-0.5,0-0.7c-0.4-0.7-0.7-1.4-0.9-2.1
				c-0.1-0.3-0.3-0.5-0.5-0.5l-2.1-0.4c-0.1,0-0.1-0.1-0.1-0.1V11c0-0.1,0-0.1,0.1-0.1l2.1-0.4c0.3,0,0.5-0.2,0.5-0.5
				C4.3,9.3,4.6,8.6,5,7.9c0.1-0.2,0.1-0.5,0-0.7L3.7,5.4c0-0.1,0-0.1,0-0.2l1.5-1.5c0,0,0.1,0,0.1,0c0,0,0.1,0,0.1,0L7.1,5
				c0.2,0.2,0.5,0.2,0.7,0c0.7-0.4,1.4-0.7,2.1-0.9c0.3-0.1,0.5-0.3,0.5-0.5l0.4-2.1c0-0.1,0.1-0.1,0.1-0.1H13c0.1,0,0.1,0,0.1,0.1
				l0.4,2.1c0,0.3,0.2,0.5,0.5,0.5c0.8,0.2,1.5,0.5,2.2,0.9c0.2,0.1,0.5,0.1,0.7,0l1.7-1.2c0,0,0.1,0,0.1,0c0,0,0.1,0,0.1,0l1.5,1.5
				c0,0,0.1,0.1,0,0.2l-1.2,1.7c-0.2,0.2-0.2,0.5,0,0.7c0.4,0.7,0.7,1.4,0.9,2.1c0.1,0.3,0.3,0.5,0.5,0.5l2.1,0.4
				c0.1,0,0.1,0.1,0.1,0.1L22.7,13.1L22.7,13.1z"/>
			<path fill="#FFFFFF" d="M12,6.8c-2.9,0-5.2,2.3-5.2,5.2s2.3,5.2,5.2,5.2s5.2-2.3,5.2-5.2S14.9,6.8,12,6.8z M12,15.8
				c-2.1,0-3.8-1.7-3.8-3.8S9.9,8.2,12,8.2s3.8,1.7,3.8,3.8S14.1,15.8,12,15.8z"/>
		</g>
	</g>
</g>
<g id="Black">
</g>
<g id="Color">
</g>
</svg>
